<?xml version="1.0" encoding="utf-8"?>
<!-- Generator: Adobe Illustrator 26.0.3, SVG Export Plug-In . SVG Version: 6.00 Build 0)  -->
<svg version="1.1" id="Layer_1" xmlns="http://www.w3.org/2000/svg" xmlns:xlink="http://www.w3.org/1999/xlink" x="0px" y="0px"
	 viewBox="0 0 18 19" style="enable-background:new 0 0 18 19;" xml:space="preserve">
<style type="text/css">
	.st0{clip-path:url(#SVGID_00000094598651086930125030000007968167799708431283_);}
	.st1{fill:#7582C2;}
</style>
<g>
	<defs>
		<rect id="SVGID_1_" y="0.6" width="18" height="18"/>
	</defs>
	<clipPath id="SVGID_00000021084022898380821610000009164515397181694337_">
		<use xlink:href="#SVGID_1_"  style="overflow:visible;"/>
	</clipPath>
	<g style="clip-path:url(#SVGID_00000021084022898380821610000009164515397181694337_);">
		<path class="st1" d="M10.2,9.5c0,2.8-2.3,5.1-5.1,5.1S0,12.3,0,9.5s2.3-5.1,5.1-5.1C7.9,4.4,10.2,6.7,10.2,9.5z M15.7,9.5
			c0,2.7-1.1,4.8-2.5,4.8s-2.5-2.2-2.5-4.8c0-2.7,1.1-4.8,2.5-4.8C14.6,4.7,15.7,6.8,15.7,9.5L15.7,9.5z M18,9.5
			c0,2.4-0.4,4.3-0.9,4.3c-0.5,0-0.9-1.9-0.9-4.3c0-2.4,0.4-4.3,0.9-4.3C17.6,5.2,18,7.1,18,9.5z"/>
	</g>
</g>
</svg>
