<?xml version="1.0" encoding="utf-8"?>
<!-- Generator: Adobe Illustrator 26.0.3, SVG Export Plug-In . SVG Version: 6.00 Build 0)  -->
<svg version="1.1" id="Layer_1" xmlns="http://www.w3.org/2000/svg" xmlns:xlink="http://www.w3.org/1999/xlink" x="0px" y="0px"
	 viewBox="0 0 16 16" style="enable-background:new 0 0 16 16;" xml:space="preserve">
<style type="text/css">
	.st0{fill:#56DCD7;}
</style>
<g>
	<path class="st0" d="M15.8,6.7l-2-0.5c-0.1-0.3-0.2-0.6-0.4-0.9l1.1-1.8c0.1-0.1,0.1-0.3,0-0.4L13,1.6c-0.1-0.1-0.3-0.1-0.4,0
		l-1.8,1.1c-0.3-0.2-0.6-0.3-0.9-0.4L9.3,0.2C9.3,0.1,9.2,0,9,0H7C6.8,0,6.7,0.1,6.7,0.2L6.2,2.3c-0.4,0.1-0.7,0.2-1,0.4L3.4,1.6
		C3.3,1.5,3.1,1.5,3,1.6L1.6,3c-0.1,0.1-0.1,0.3,0,0.4l1.1,1.8c-0.2,0.3-0.3,0.6-0.4,1L0.2,6.7C0.1,6.7,0,6.8,0,7v2
		c0,0.1,0.1,0.3,0.2,0.3l2.1,0.5c0.1,0.3,0.2,0.6,0.4,0.9l-1.1,1.8c-0.1,0.1-0.1,0.3,0,0.4L3,14.4c0.1,0.1,0.3,0.1,0.4,0l1.8-1.1
		c0.3,0.2,0.6,0.3,0.9,0.4l0.5,2C6.7,15.9,6.8,16,7,16h2c0.1,0,0.3-0.1,0.3-0.2l0.5-2.1c0.3-0.1,0.6-0.2,0.9-0.4l1.8,1.1
		c0.1,0.1,0.3,0.1,0.4,0l1.4-1.4c0.1-0.1,0.1-0.3,0-0.4l-1.1-1.8c0.2-0.3,0.3-0.6,0.4-0.9l2.1-0.5C15.9,9.3,16,9.2,16,9V7
		C16,6.8,15.9,6.7,15.8,6.7z M15.4,8.8l-2,0.5c-0.1,0-0.2,0.1-0.2,0.2c-0.1,0.4-0.3,0.8-0.5,1.1c-0.1,0.1-0.1,0.3,0,0.4l0,0l1,1.7
		l-1.1,1.1l-1.7-1l0,0c-0.1-0.1-0.2-0.1-0.4,0c-0.3,0.2-0.7,0.4-1.1,0.5c-0.1,0-0.2,0.1-0.2,0.2l-0.5,2H7.2l-0.5-2
		c0-0.1-0.1-0.2-0.2-0.2c-0.4-0.1-0.8-0.3-1.1-0.5c-0.1-0.1-0.2-0.1-0.3,0l0,0l-1.7,1l-1.1-1.1l1-1.7c0.1-0.1,0.1-0.2,0-0.4
		C3.1,10.3,3,9.9,2.8,9.5c0-0.1-0.1-0.2-0.2-0.2l-2-0.5V7.2l2-0.5c0.1,0,0.2-0.1,0.2-0.2C3,6.1,3.1,5.7,3.3,5.4
		c0.1-0.1,0.1-0.2,0-0.3l0,0l-1-1.7l1.1-1.1l1.7,1l0,0c0.1,0.1,0.2,0.1,0.3,0C5.7,3.1,6.1,3,6.5,2.8c0.1,0,0.2-0.1,0.2-0.2l0.5-2
		h1.5l0.5,2c0,0.1,0.1,0.2,0.2,0.2c0.4,0.1,0.8,0.3,1.1,0.5c0.1,0.1,0.3,0.1,0.4,0l1.7-1l1.1,1.1l-1,1.7l0,0c-0.1,0.1-0.1,0.2,0,0.3
		c0.2,0.3,0.4,0.7,0.5,1.1c0,0.1,0.1,0.2,0.2,0.2l2,0.5V8.8z"/>
	<path class="st0" d="M8,4.7C6.2,4.7,4.7,6.2,4.7,8s1.5,3.3,3.3,3.3s3.3-1.5,3.3-3.3S9.8,4.7,8,4.7z M8,10.7c-1.5,0-2.7-1.2-2.7-2.7
		S6.5,5.3,8,5.3s2.7,1.2,2.7,2.7S9.5,10.7,8,10.7z"/>
</g>
</svg>
